\relax 
\@writefile{toc}{\contentsline {section}{\numberline {1}A section}{1}}
\newlabel{sec:A section}{{1}{1}}
\@writefile{toc}{\contentsline {subsection}{\numberline {1.1}A subsection}{1}}
\newlabel{subsec:A subsection}{{1.1}{1}}
\newlabel{LastPage}{{}{1}}
\xdef\lastpage@lastpage{1}
\gdef\lastpage@lastpageHy{}
