name,slug
Apc,apc
Apple,apple
ATEN,aten
Cisco,cisco
Dell,dell
EMC,emc
EXS Systems,exs-systems
HP,hp
IBM,ibm
Intel,intel
Mechanical,mechanical
Mellanox,mellanox
Oracle,oracle
Peralex,peralex
QUANTA COMPUTER INC.,quanta-computer-inc
Raritan,raritan
Supermicro,supermicro
Xenon,xenon