manufacturer,model,slug,part_number,u_height,is_full_depth,is_console_server,is_pdu,is_network_device,subdevice_role,interface_ordering,comments
Apc,AP8981,ap8981,,0,,,True,True,,Slot/position,
Apple,"MacBook Pro (15-inch, Mid 2012)",macbook-pro-15-inch-mid-2012,,0,,,,True,,Slot/position,
ATEN,Console,console,,1,True,True,,,,Slot/position,
Dell,Dell ​Precision Tower 7910,dell-precision-tower-7910,,0,True,,,True,,Slot/position,
Dell,Monitor-Dell FB/BL 19",monitor-dell-fbbl-19,,0,True,,,,,Slot/position,
Dell,R330,r330,,1,True,,,True,,Slot/position,
Dell,R410,r410,,1,True,,,True,,Slot/position,
Dell,R420,r420,,1,True,,,True,,Slot/position,
Dell,R430,r430,,1,True,,,True,,Slot/position,
Dell,R720,r720,,2,True,,,True,,Slot/position,
Dell,R730,r730,,2,True,,,True,,Slot/position,
Dell,R815,r815,R815,2,True,,,True,,Slot/position,
EMC,DS-6505B,ds-6505b,,1,True,,,True,,Slot/position,
HP,2530-48G,2530-48g,,1,True,,,True,,Slot/position,
IBM,PowerLinux 7R2,powerlinux-7r2,,2,True,,,True,,Slot/position,
Mechanical,SANREN_PATCH_PANEL,sanren_patch_panel,,1,True,,,,,Slot/position,12 pair fibre patch panel
Mellanox,MSN2410,msn2410,,1,,,,True,,Slot/position,
Mellanox,SX1710,sx1710,,1,True,,,True,,Slot/position,
Oracle,Storagetek SL150,storagetek-sl150,,11,True,,,True,,Slot/position,
Peralex,DSS-HC,dss-hc,,4,True,,,True,,Slot/position,
Peralex,DSS-HS,dss-hs,,4,True,,,True,,Slot/position,
QUANTA COMPUTER INC.,LB4M,lb4m,,1,True,,,True,,Slot/position,
Raritan,raritan-3phase-pdu,raritan-3phase-pdu,,42,,,True,True,,Slot/position,
Supermicro,4028GR-TR2,4028gr-tr2,4028GR-TR2,5,True,,,True,,Slot/position,
Xenon,Xenon4u,xenon4u,,4,True,,,True,,Slot/position,